Assignment 5 - DESeq2
…
head(rnk_list)

##        Strit1          Inmt 2310015A16Rik       Gm49708           Pah 
##      9.651319      9.455326      9.298171      9.021722      8.997306 
##         mt-Ti 
##      8.801921

tail(rnk_list)

##       Cpa1      Bmp10      Troap    Or51af1      Tnni1       Dlk1 
##  -8.798726  -9.230116  -9.251710  -9.392386  -9.859226 -10.275799

Perform a GSEA using a ranked list log2FoldChange values for all genes discovered in the DESeq2 results against the C2 Canonical Pathways gene set collection. As recommended, please set the minSize and maxSize parameters to 15 and 500, respectively. Before running fgsea, you will have to load the GMT pathways file in an appropriate format for fgsea. Otherwise, run fgsea using default parameters and the fgsea() function.

## # A tibble: 986 × 8
##    pathway                  pval     padj log2err     ES   NES  size leadingEdge
##    <chr>                   <dbl>    <dbl>   <dbl>  <dbl> <dbl> <int> <list>     
##  1 REACTOME_THE_CITRIC… 3.21e-22 3.16e-19   1.22   0.623  2.83   163 <chr [130]>
##  2 REACTOME_MITOTIC_SP… 9.96e-21 4.91e-18   1.18  -0.705 -2.75   107 <chr [32]> 
##  3 REACTOME_CELL_CYCLE… 2.57e-20 8.45e-18   1.17  -0.549 -2.38   275 <chr [62]> 
##  4 REACTOME_AMPLIFICAT… 2.28e-19 5.61e-17   1.13  -0.724 -2.74    90 <chr [31]> 
##  5 REACTOME_RESOLUTION… 3.80e-19 7.50e-17   1.13  -0.671 -2.65   116 <chr [36]> 
##  6 REACTOME_RESPIRATOR… 5.79e-18 9.51e-16   1.10   0.678  2.87    96 <chr [87]> 
##  7 REACTOME_MITOTIC_PR… 7.74e-18 1.09e-15   1.09  -0.585 -2.44   187 <chr [42]> 
##  8 REACTOME_MITOTIC_ME… 3.76e-17 4.63e-15   1.07  -0.560 -2.37   219 <chr [41]> 
##  9 REACTOME_RESPIRATOR… 5.34e-17 5.85e-15   1.07   0.637  2.81   119 <chr [103]>
## 10 REACTOME_SEPARATION… 4.50e-15 4.44e-13   0.997 -0.569 -2.37   181 <chr [36]> 
## # ℹ 976 more rows
…
